…
<!-- end list -->

``` r
# filter variable 'Smell' with outcomes "Altered" and "Normal"
Antibodies_Smell = filter(Antibodies, Smell == c("Altered", "Normal"))
## Warning in Smell == c("Altered", "Normal"): longer object length is not a
## multiple of shorter object length
Antibodies_Smell
## # A tibble: 721 x 5
##    Subject AgeCategory Antibody_IgM Smell   Gender
##      <dbl> <chr>              <dbl> <chr>   <chr> 
##  1       2 18-30             NA     Normal  Female
##  2       4 31-50             NA     Normal  Male  
##  3       6 31-50              0.055 Normal  Male  
##  4       7 51+               NA     Altered Male  
##  5       8 31-50             NA     Normal  Male  
##  6       9 31-50             NA     Altered Female
##  7      10 18-30             NA     Normal  Male  
##  8      13 31-50              0.162 Altered Female
##  9      14 31-50             NA     Normal  Male  
## 10      16 31-50             NA     Normal  Female
## # ... with 711 more rows
…
